makerchip_examples/vlt_dump.vcd
$version Generated by VerilatedVcd $end
$timescale 1ps $end
 $scope module TOP $end
  $var wire 1 +! clk $end
  $var wire 1 ,! reset_async $end
  $var wire 1 -! passed $end
  $var wire 1 .! failed $end
  $scope module makerchip $end
   $var wire 1 +! clk $end
   $var wire 1 ,! reset_async $end
   $var wire 1 -! passed $end
   $var wire 1 .! failed $end
   $var wire 1 $ reset $end
   $var wire 32 % cyc_cnt [31:0] $end
   $scope module top $end
    $var wire 1 +! clk $end
    $var wire 1 $ reset $end
    $var wire 32 % cyc_cnt [31:0] $end
    $var wire 1 -! passed $end
    $var wire 1 .! failed $end
    $var wire 257 & RW_rand_raw [256:0] $end
    $var wire 320 / RW_rand_vect [319:0] $end
    $var wire 16 9 L0_Cnt_n1 [15:0] $end
    $var wire 16 : L0_Cnt_a0 [15:0] $end
    $var wire 1 $ L0_reset_a0 $end
    $var wire 16 t EXE_adj_offset6_a5 [15:0] $end
    $var wire 4 z EXE_aluop_a4 [3:0] $end
    $var wire 4 u EXE_aluop_a5 [3:0] $end
    $var wire 1 { EXE_br_a4 $end
    $var wire 1 v EXE_br_a5 $end
    $var wire 1 q EXE_br_a6 $end
    $var wire 3 (! EXE_cc_a5 [2:0] $end
    $var wire 3 ; EXE_cc_a6 [2:0] $end
    $var wire 3 | EXE_dest_a4 [2:0] $end
    $var wire 3 w EXE_dest_a5 [2:0] $end
    $var wire 3 r EXE_dest_a6 [2:0] $end
    $var wire 1 < EXE_fetch_a6 $end
    $var wire 1 = EXE_instr_valid_a3 $end
    $var wire 1 > EXE_instr_valid_a4 $end
    $var wire 1 ? EXE_instr_valid_a5 $end
    $var wire 1 @ EXE_instr_valid_a6 $end
    $var wire 16 /! EXE_ir_a3 [15:0] $end
    $var wire 16 } EXE_ir_a4 [15:0] $end
    $var wire 16 0! EXE_mar_a5 [15:0] $end
    $var wire 16 A EXE_mar_a6 [15:0] $end
    $var wire 16 1! EXE_mdr_a5 [15:0] $end
    $var wire 16 B EXE_mdr_a6 [15:0] $end
    $var wire 1 C EXE_mem_op_a6 $end
    $var wire 1 D EXE_mem_op_a7 $end
    $var wire 1 E EXE_mem_op_a8 $end
    $var wire 16 F EXE_mem_rdata_a6 [15:0] $end
    $var wire 1 E EXE_mem_resp_a6 $end
    $var wire 6 ~ EXE_offset6_a4 [5:0] $end
    $var wire 6 x EXE_offset6_a5 [5:0] $end
    $var wire 9 !! EXE_offset9_a4 [8:0] $end
    $var wire 9 y EXE_offset9_a5 [8:0] $end
    $var wire 9 s EXE_offset9_a6 [8:0] $end
    $var wire 4 "! EXE_opcode_a4 [3:0] $end
    $var wire 16 2! EXE_reg_a_a4 [15:0] $end
    $var wire 16 G EXE_reg_a_a5 [15:0] $end
    $var wire 16 3! EXE_reg_b_a4 [15:0] $end
    $var wire 16 H EXE_reg_b_a5 [15:0] $end
    $var wire 16 )! EXE_rslt_a5 [15:0] $end
    $var wire 3 #! EXE_src1_a4 [2:0] $end
    $var wire 3 $! EXE_src2_a4 [2:0] $end
    $var wire 1 4! EXE_valid_br_taken_a6 $end
    $var wire 1 5! EXE_valid_exe_inst_a6 $end
    $var wire 1 %! EXE_valid_ld_a4 $end
    $var wire 1 I EXE_valid_ld_a5 $end
    $var wire 1 J EXE_valid_ld_a6 $end
    $var wire 1 &! EXE_valid_mem_instr_a4 $end
    $var wire 1 K EXE_valid_mem_instr_a5 $end
    $var wire 1 L EXE_valid_mem_instr_a6 $end
    $var wire 1 '! EXE_valid_st_a4 $end
    $var wire 1 M EXE_valid_st_a5 $end
    $var wire 1 N EXE_valid_st_a6 $end
    $var wire 1 O EXE_valid_st_a7 $end
    $var wire 1 6! FETCH_instr_valid_a1 $end
    $var wire 1 < FETCH_instr_valid_a2 $end
    $var wire 16 7! FETCH_pc_a0 [15:0] $end
    $var wire 16 P FETCH_pc_a1 [15:0] $end
    $var wire 1 $ FETCH_reset_a0 $end
    $var wire 1 Q FETCH_reset_a1 $end
    $var wire 1 R FETCH_reset_a2 $end
    $var wire 1 4! FETCH_valid_br_taken_a0 $end
    $var wire 1 S RESP_FetchPending_a1 $end
    $var wire 1 T RESP_FetchPending_a2 $end
    $var wire 1 U RESP_FetchPending_a3 $end
    $var wire 1 V RESP_LoadPending_a1 $end
    $var wire 1 W RESP_LoadPending_a2 $end
    $var wire 1 X RESP_LoadPending_a3 $end
    $var wire 1 Y RESP_StorePending_a1 $end
    $var wire 1 Z RESP_StorePending_a2 $end
    $var wire 1 [ RESP_StorePending_a3 $end
    $var wire 1 = RESP_fetch_resp_valid_a3 $end
    $var wire 1 \ RESP_ld_resp_valid_a3 $end
    $var wire 1 ] RESP_ld_resp_valid_a4 $end
    $var wire 16 F RESP_mem_rdata_a2 [15:0] $end
    $var wire 16 ^ RESP_mem_rdata_a3 [15:0] $end
    $var wire 1 E RESP_mem_resp_a2 $end
    $var wire 1 _ RESP_mem_resp_a3 $end
    $var wire 1 Y RESP_next_store_pending_a2 $end
    $var wire 1 $ RESP_reset_a1 $end
    $var wire 1 Q RESP_reset_a2 $end
    $var wire 1 8! clkP_EXE_instr_valid_a5 $end
    $var wire 1 9! clkP_EXE_instr_valid_a6 $end
    $scope module DEBUG_SIGS $end
     $var wire 16 9 @-1$Cnt [15:0] $end
     $var wire 1 $ @0$reset $end
     $scope module |exe $end
      $var wire 16 t /@5$adj_offset6 [15:0] $end
      $var wire 4 z /?$instr_valid@4$aluop [3:0] $end
      $var wire 1 { /?$instr_valid@4$br $end
      $var wire 3 (! /@5$cc [2:0] $end
      $var wire 3 | /?$instr_valid@4$dest [2:0] $end
      $var wire 1 < /@6$fetch $end
      $var wire 1 = /@3$instr_valid $end
      $var wire 16 /! /@3$ir [15:0] $end
      $var wire 16 0! /@5$mar [15:0] $end
      $var wire 16 1! /@5$mdr [15:0] $end
      $var wire 1 C /@6$mem_op $end
      $var wire 16 F /@6$mem_rdata [15:0] $end
      $var wire 1 E /@6$mem_resp $end
      $var wire 6 ~ /?$instr_valid@4$offset6 [5:0] $end
      $var wire 9 !! /?$instr_valid@4$offset9 [8:0] $end
      $var wire 4 "! /?$instr_valid@4$opcode [3:0] $end
      $var wire 16 2! /@4$reg_a [15:0] $end
      $var wire 16 3! /@4$reg_b [15:0] $end
      $var wire 16 )! /@5$rslt [15:0] $end
      $var wire 3 #! /?$instr_valid@4$src1 [2:0] $end
      $var wire 3 $! /?$instr_valid@4$src2 [2:0] $end
      $var wire 1 4! /@6$valid_br_taken $end
      $var wire 1 5! /@6$valid_exe_inst $end
      $var wire 1 %! /@4$valid_ld $end
      $var wire 1 &! /@4$valid_mem_instr $end
      $var wire 1 '! /@4$valid_st $end
     $upscope $end
     $scope module |fetch $end
      $var wire 1 6! /@1$instr_valid $end
      $var wire 16 7! /@0$pc [15:0] $end
      $var wire 1 $ /@0$reset $end
      $var wire 1 4! /@0$valid_br_taken $end
     $upscope $end
     $scope module |resp $end
      $var wire 1 S /@1$FetchPending $end
      $var wire 1 V /@1$LoadPending $end
      $var wire 1 Y /@1$StorePending $end
      $var wire 1 = /@3$fetch_resp_valid $end
      $var wire 1 \ /@3$ld_resp_valid $end
      $var wire 16 F /@2$mem_rdata [15:0] $end
      $var wire 1 E /@2$mem_resp $end
      $var wire 1 Y /@2$next_store_pending $end
      $var wire 1 $ /@1$reset $end
     $upscope $end
    $upscope $end
    $scope module alu $end
     $var wire 4 u aluop [3:0] $end
     $var wire 16 G a [15:0] $end
     $var wire 16 *! b [15:0] $end
     $var wire 16 )! f [15:0] $end
    $upscope $end
    $scope module gen_clkP_EXE_instr_valid_a5 $end
     $var wire 1 8! gated_clk $end
     $var wire 1 +! free_clk $end
     $var wire 1 =! func_en $end
     $var wire 1 > pwr_en $end
     $var wire 1 >! gating_override $end
     $var wire 1 > clk_en $end
     $var wire 1 :! latched_clk_en $end
    $upscope $end
    $scope module gen_clkP_EXE_instr_valid_a6 $end
     $var wire 1 9! gated_clk $end
     $var wire 1 +! free_clk $end
     $var wire 1 =! func_en $end
     $var wire 1 ? pwr_en $end
     $var wire 1 >! gating_override $end
     $var wire 1 ? clk_en $end
     $var wire 1 ;! latched_clk_en $end
    $upscope $end
    $scope module pseudo_rand $end
     $var wire 32 ?! WIDTH [31:0] $end
     $var wire 1 +! clk $end
     $var wire 1 $ reset $end
     $var wire 257 & rand_vect [256:0] $end
     $var wire 32 ?! LFSR_WIDTH [31:0] $end
     $var wire 257 @! LFSR_POLY [256:0] $end
     $var wire 257 I! SEED [256:0] $end
     $var wire 257 ` DEFAULT_lfsr_a1 [256:0] $end
     $var wire 257 & DEFAULT_lfsr_a2 [256:0] $end
     $var wire 1 $ DEFAULT_reset_a0 $end
     $var wire 1 Q DEFAULT_reset_a1 $end
    $upscope $end
    $scope module rf $end
     $var wire 1 +! clk $end
     $var wire 1 \ load $end
     $var wire 16 <! in [15:0] $end
     $var wire 3 #! src_a [2:0] $end
     $var wire 3 $! src_b [2:0] $end
     $var wire 3 | dest [2:0] $end
     $var wire 16 2! reg_a [15:0] $end
     $var wire 16 3! reg_b [15:0] $end
     $var wire 16 i data[0] [15:0] $end
     $var wire 16 j data[1] [15:0] $end
     $var wire 16 k data[2] [15:0] $end
     $var wire 16 l data[3] [15:0] $end
     $var wire 16 m data[4] [15:0] $end
     $var wire 16 n data[5] [15:0] $end
     $var wire 16 o data[6] [15:0] $end
     $var wire 16 p data[7] [15:0] $end
     $scope module unnamedblk1 $end
      $var wire 32 # i [31:0] $end
     $upscope $end
    $upscope $end
   $upscope $end
  $upscope $end
 $upscope $end
$enddefinitions $end


#0
b00000000000000000000000000001000 #
0$
b00000000000000000000000000000000 %
b00000000000000000000000000000000000000000000000000000000000000000000000000000000000000000000000000000000000000000000000000000000000000000000000000000000000000000000000000000000000000000000000000000000000000000000000000000000000000000000000000000000000000000 &
b00000000000000000000000000000000000000000000000000000000000000000000000000000000000000000000000000000000000000000000000000000000000000000000000000000000000000000000000000000000000000000000000000000000000000000000000000000000000000000000000000000000000000000000000000000000000000000000000000000000000000000000000000000000 /
b0000000000000001 9
b0000000000000000 :
b000 ;
0<
0=
0>
0?
0@
b0000000000000000 A
b0000000000000000 B
0C
0D
0E
b0000000000000000 F
b0000000000000000 G
b0000000000000000 H
0I
0J
0K
0L
0M
0N
0O
b0000000000000000 P
0Q
0R
0S
0T
0U
0V
0W
0X
0Y
0Z
0[
0\
0]
b0000000000000000 ^
0_
b00000000000000000000000000000000000000000000000000000000000000000000000000000000000000000000000000000000000000000000000000000000000000000000000000000000000000000000000000000000000000000000000000000000000000000000000000000000000000000000000000000000000000000 `
b0000000000000000 i
b0000000000000000 j
b0000000000000000 k
b0000000000000000 l
b0000000000000000 m
b0000000000000000 n
b0000000000000000 o
b0000000000000000 p
0q
b000 r
b000000000 s
b0000000000000000 t
b0000 u
0v
b000 w
b000000 x
b000000000 y
b0000 z
1{
b000 |
b0000000000000000 }
b000000 ~
b000000000 !!
b0000 "!
b000 #!
b000 $!
0%!
0&!
0'!
b010 (!
b0000000000000000 )!
b0000000000000000 *!
1+!
1,!
0-!
0.!
b0000000000000000 /!
b0000000000000000 0!
b0000000000000000 1!
b0000000000000000 2!
b0000000000000000 3!
04!
05!
06!
b0000000000000000 7!
08!
09!
0:!
0;!
b0000000000000000 <!
1=!
0>!
b00000000000000000000000100000001 ?!
b00000000000000000000000000000000000000000000000000000000000000000000000000000000000000000000000000000000000000000000000000000000000000000000000000000000000000000000000000000000000000000000000000000000000000000000000000000000000000000000000000000000011000101 @!
b00111000101100011111000010110100001110001001111010101010000110001011001101000010011100001001100100101110011011000010010000100100011110011000001001000101101000110011101101000011101000110010101000000110001000101111110000110010000000100111001000110100001001010 I!
#1
0+!
#2
1$
b00000000000000000000000000000001 %
b0000000000000000 9
b0000000000000001 :
b010 ;
1+!
#3
0+!
#4
b0000000000000000 :
1Q
b00111000101100011111000010110100001110001001111010101010000110001011001101000010011100001001100100101110011011000010010000100100011110011000001001000101101000110011101101000011101000110010101000000110001000101111110000110010000000100111001000110100001001010 `
1+!
#5
0+!
#6
b00111000101100011111000010110100001110001001111010101010000110001011001101000010011100001001100100101110011011000010010000100100011110011000001001000101101000110011101101000011101000110010101000000110001000101111110000110010000000100111001000110100001001010 &
b00011000100010111111000011001000000010011100100011010000100101000111000101100011111000010110100001110001001111010101010000110001011001101000010011100001001100100101110011011000010010000100100011110011000001001000101101000110011101101000011101000110010101000000110001000101111110000110010000000100111001000110100001001010 /
b0110100001001010 F
1R
1+!
#7
0+!
#8
b0110100001001010 ^
1+!
b0110100001001010 <!
#9
0+!
0,!
#10
0$
b0000000000000001 9
1+!
#11
0+!
#12
b00000000000000000000000000000010 %
b0000000000000010 9
b0000000000000001 :
0Q
b01110001011000111110000101101000011100010011110101010100001100010110011010000100111000010011001001011100110110000100100001001000111100110000010010001011010001100111011010000111010001100101010000001100010001011111100001100100000001001110010001101000010010100 `
1+!
16!
#13
0+!
#14
b00000000000000000000000000000011 %
b01110001011000111110000101101000011100010011110101010100001100010110011010000100111000010011001001011100110110000100100001001000111100110000010010001011010001100111011010000111010001100101010000001100010001011111100001100100000001001110010001101000010010100 &
b00110001000101111110000110010000000100111001000110100001001010001110001011000111110000101101000011100010011110101010100001100010110011010000100111000010011001001011100110110000100100001001000111100110000010010001011010001100111011010000111010001100101010000001100010001011111100001100100000001001110010001101000010010100 /
b0000000000000011 9
b0000000000000010 :
1<
1C
b1101000010010100 F
0R
1S
b11100010110001111100001011010000111000100111101010101000011000101100110100001001110000100110010010111001101100001001000010010001111001100000100100010110100011001110110100001110100011001010100000011000100010111111000011001000000010011100100011010000100101000 `
1+!
06!
#15
0+!
#16
b00000000000000000000000000000100 %
b11100010110001111100001011010000111000100111101010101000011000101100110100001001110000100110010010111001101100001001000010010001111001100000100100010110100011001110110100001110100011001010100000011000100010111111000011001000000010011100100011010000100101000 &
b01100010001011111100001100100000001001110010001101000010010100011100010110001111100001011010000111000100111101010101000011000101100110100001001110000100110010010111001101100001001000010010001111001100000100100010110100011001110110100001110100011001010100000011000100010111111000011001000000010011100100011010000100101000 /
b0000000000000100 9
b0000000000000011 :
0<
0C
1D
b1010000100101000 F
1T
b1101000010010100 ^
b11000101100011111000010110100001110001001111010101010000110001011001101000010011100001001100100101110011011000010010000100100011110011000001001000101101000110011101101000011101000110010101000000110001000101111110000110010000000100111001000110100001010010101 `
1+!
b1101000010010100 <!
#17
0+!
#18
b00000000000000000000000000000101 %
b11000101100011111000010110100001110001001111010101010000110001011001101000010011100001001100100101110011011000010010000100100011110011000001001000101101000110011101101000011101000110010101000000110001000101111110000110010000000100111001000110100001010010101 &
b11000100010111111000011001000000010011100100011010000101001010111000101100011111000010110100001110001001111010101010000110001011001101000010011100001001100100101110011011000010010000100100011110011000001001000101101000110011101101000011101000110010101000000110001000101111110000110010000000100111001000110100001010010101 /
b0000000000000101 9
b0000000000000100 :
0D
1E
b0100001010010101 F
0S
1U
b1010000100101000 ^
b10001011000111110000101101000011100010011110101010100001100010110011010000100111000010011001001011100110110000100100001001000111100110000010010001011010001100111011010000111010001100101010000001100010001011111100001100100000001001110010001101000010111101111 `
1+!
b1010000100101000 <!
#19
0+!
#20
b00000000000000000000000000000110 %
b10001011000111110000101101000011100010011110101010100001100010110011010000100111000010011001001011100110110000100100001001000111100110000010010001011010001100111011010000111010001100101010000001100010001011111100001100100000001001110010001101000010111101111 &
b10001000101111110000110010000000100111001000110100001011110111110001011000111110000101101000011100010011110101010100001100010110011010000100111000010011001001011100110110000100100001001000111100110000010010001011010001100111011010000111010001100101010000001100010001011111100001100100000001001110010001101000010111101111 /
b0000000000000110 9
b0000000000000101 :
1=
0E
b1000010111101111 F
0T
b0100001010010101 ^
1_
b00010110001111100001011010000111000100111101010101000011000101100110100001001110000100110010010111001101100001001000010010001111001100000100100010110100011001110110100001110100011001010100000011000100010111111000011001000000010011100100011010000101100011011 `
1+!
b0100001010010101 /!
b0100001010010101 <!
#21
0+!
#22
b00000000000000000000000000000111 %
b00010110001111100001011010000111000100111101010101000011000101100110100001001110000100110010010111001101100001001000010010001111001100000100100010110100011001110110100001110100011001010100000011000100010111111000011001000000010011100100011010000101100011011 &
b00010001011111100001100100000001001110010001101000010110001101100010110001111100001011010000111000100111101010101000011000101100110100001001110000100110010010111001101100001001000010010001111001100000100100010110100011001110110100001110100011001010100000011000100010111111000011001000000010011100100011010000101100011011 /
b0000000000000111 9
b0000000000000110 :
0=
1>
b0000101100011011 F
0U
b1000010111101111 ^
0_
b00101100011111000010110100001110001001111010101010000110001011001101000010011100001001100100101110011011000010010000100100011110011000001001000101101000110011101101000011101000110010101000000110001000101111110000110010000000100111001000110100001011000110110 `
0{
b001 |
b0100001010010101 }
b010101 ~
b010010101 !!
b0100 "!
b010 #!
b101 $!
1+!
b0000000000000000 <!
#23
0+!
1:!
#24
b00000000000000000000000000001000 %
b00101100011111000010110100001110001001111010101010000110001011001101000010011100001001100100101110011011000010010000100100011110011000001001000101101000110011101101000011101000110010101000000110001000101111110000110010000000100111001000110100001011000110110 &
b00100010111111000011001000000010011100100011010000101100011011000101100011111000010110100001110001001111010101010000110001011001101000010011100001001100100101110011011000010010000100100011110011000001001000101101000110011101101000011101000110010101000000110001000101111110000110010000000100111001000110100001011000110110 /
b0000000000001000 9
b0000000000000111 :
0>
1?
b0001011000110110 F
b0000101100011011 ^
b01011000111110000101101000011100010011110101010100001100010110011010000100111000010011001001011100110110000100100001001000111100110000010010001011010001100111011010000111010001100101010000001100010001011111100001100100000001001110010001101000010110001101100 `
b0000000000010101 t
b001 w
b010101 x
b010010101 y
1+!
18!
b0000101100011011 <!
#25
0+!
08!
0:!
1;!
#26
b00000000000000000000000000001001 %
b01011000111110000101101000011100010011110101010100001100010110011010000100111000010011001001011100110110000100100001001000111100110000010010001011010001100111011010000111010001100101010000001100010001011111100001100100000001001110010001101000010110001101100 &
b01000101111110000110010000000100111001000110100001011000110110001011000111110000101101000011100010011110101010100001100010110011010000100111000010011001001011100110110000100100001001000111100110000010010001011010001100111011010000111010001100101010000001100010001011111100001100100000001001110010001101000010110001101100 /
b0000000000001001 9
b0000000000001000 :
0?
1@
b0010110001101100 F
b0001011000110110 ^
b10110001111100001011010000111000100111101010101000011000101100110100001001110000100110010010111001101100001001000010010001111001100000100100010110100011001110110100001110100011001010100000011000100010111111000011001000000010011100100011010000101100011011000 `
b001 r
b010010101 s
1+!
15!
16!
19!
b0001011000110110 <!
#27
0+!
09!
0;!
#28
b00000000000000000000000000001010 %
b10110001111100001011010000111000100111101010101000011000101100110100001001110000100110010010111001101100001001000010010001111001100000100100010110100011001110110100001110100011001010100000011000100010111111000011001000000010011100100011010000101100011011000 &
b10001011111100001100100000001001110010001101000010110001101100010110001111100001011010000111000100111101010101000011000101100110100001001110000100110010010111001101100001001000010010001111001100000100100010110100011001110110100001110100011001010100000011000100010111111000011001000000010011100100011010000101100011011000 /
b0000000000001010 9
b0000000000001001 :
1<
0@
1C
b0101100011011000 F
1S
b0010110001101100 ^
b01100011111000010110100001110001001111010101010000110001011001101000010011100001001100100101110011011000010010000100100011110011000001001000101101000110011101101000011101000110010101000000110001000101111110000110010000000100111001000110100001011000101110101 `
1+!
05!
06!
b0010110001101100 <!
#29
0+!
#30
b00000000000000000000000000001011 %
b01100011111000010110100001110001001111010101010000110001011001101000010011100001001100100101110011011000010010000100100011110011000001001000101101000110011101101000011101000110010101000000110001000101111110000110010000000100111001000110100001011000101110101 &
b00010111111000011001000000010011100100011010000101100010111010101100011111000010110100001110001001111010101010000110001011001101000010011100001001100100101110011011000010010000100100011110011000001001000101101000110011101101000011101000110010101000000110001000101111110000110010000000100111001000110100001011000101110101 /
b0000000000001011 9
b0000000000001010 :
0<
0C
1D
b1011000101110101 F
1T
b0101100011011000 ^
b11000111110000101101000011100010011110101010100001100010110011010000100111000010011001001011100110110000100100001001000111100110000010010001011010001100111011010000111010001100101010000001100010001011111100001100100000001001110010001101000010110001011101010 `
1+!
b0101100011011000 <!
#31
0+!
#32
b00000000000000000000000000001100 %
b11000111110000101101000011100010011110101010100001100010110011010000100111000010011001001011100110110000100100001001000111100110000010010001011010001100111011010000111010001100101010000001100010001011111100001100100000001001110010001101000010110001011101010 &
b00101111110000110010000000100111001000110100001011000101110101011000111110000101101000011100010011110101010100001100010110011010000100111000010011001001011100110110000100100001001000111100110000010010001011010001100111011010000111010001100101010000001100010001011111100001100100000001001110010001101000010110001011101010 /
b0000000000001100 9
b0000000000001011 :
0D
1E
b0110001011101010 F
0S
1U
b1011000101110101 ^
b10001111100001011010000111000100111101010101000011000101100110100001001110000100110010010111001101100001001000010010001111001100000100100010110100011001110110100001110100011001010100000011000100010111111000011001000000010011100100011010000101100010100010001 `
1+!
b1011000101110101 <!
#33
0+!
#34
b00000000000000000000000000001101 %
b10001111100001011010000111000100111101010101000011000101100110100001001110000100110010010111001101100001001000010010001111001100000100100010110100011001110110100001110100011001010100000011000100010111111000011001000000010011100100011010000101100010100010001 &
b01011111100001100100000001001110010001101000010110001010001000110001111100001011010000111000100111101010101000011000101100110100001001110000100110010010111001101100001001000010010001111001100000100100010110100011001110110100001110100011001010100000011000100010111111000011001000000010011100100011010000101100010100010001 /
b0000000000001101 9
b0000000000001100 :
1=
0E
b1100010100010001 F
0T
b0110001011101010 ^
1_
b00011111000010110100001110001001111010101010000110001011001101000010011100001001100100101110011011000010010000100100011110011000001001000101101000110011101101000011101000110010101000000110001000101111110000110010000000100111001000110100001011000101011100111 `
1+!
b0110001011101010 /!
b0110001011101010 <!
#35
0+!
#36
b00000000000000000000000000001110 %
b00011111000010110100001110001001111010101010000110001011001101000010011100001001100100101110011011000010010000100100011110011000001001000101101000110011101101000011101000110010101000000110001000101111110000110010000000100111001000110100001011000101011100111 &
b10111111000011001000000010011100100011010000101100010101110011100011111000010110100001110001001111010101010000110001011001101000010011100001001100100101110011011000010010000100100011110011000001001000101101000110011101101000011101000110010101000000110001000101111110000110010000000100111001000110100001011000101011100111 /
b0000000000001110 9
b0000000000001101 :
0=
1>
b1000101011100111 F
0U
b1100010100010001 ^
0_
b00111110000101101000011100010011110101010100001100010110011010000100111000010011001001011100110110000100100001001000111100110000010010001011010001100111011010000111010001100101010000001100010001011111100001100100000001001110010001101000010110001010111001110 `
b0110001011101010 }
b101010 ~
b011101010 !!
b0110 "!
b011 #!
b010 $!
1%!
1&!
1+!
b1100010100010001 <!
#37
0+!
1:!
#38
b00000000000000000000000000001111 %
b00111110000101101000011100010011110101010100001100010110011010000100111000010011001001011100110110000100100001001000111100110000010010001011010001100111011010000111010001100101010000001100010001011111100001100100000001001110010001101000010110001010111001110 &
b01111110000110010000000100111001000110100001011000101011100111000111110000101101000011100010011110101010100001100010110011010000100111000010011001001011100110110000100100001001000111100110000010010001011010001100111011010000111010001100101010000001100010001011111100001100100000001001110010001101000010110001010111001110 /
b0000000000001111 9
b0000000000001110 :
0>
1?
b0001010111001110 F
1I
1K
b1000101011100111 ^
b01111100001011010000111000100111101010101000011000101100110100001001110000100110010010111001101100001001000010010001111001100000100100010110100011001110110100001110100011001010100000011000100010111111000011001000000010011100100011010000101100010101110011100 `
b1111111111101010 t
b101010 x
b011101010 y
0%!
0&!
b101 (!
b1111111111101010 )!
b1111111111101010 *!
1+!
b1111111111101010 0!
18!
b1000101011100111 <!
#39
0+!
08!
0:!
1;!
#40
b00000000000000000000000000010000 %
b01111100001011010000111000100111101010101000011000101100110100001001110000100110010010111001101100001001000010010001111001100000100100010110100011001110110100001110100011001010100000011000100010111111000011001000000010011100100011010000101100010101110011100 &
b11111100001100100000001001110010001101000010110001010111001110001111100001011010000111000100111101010101000011000101100110100001001110000100110010010111001101100001001000010010001111001100000100100010110100011001110110100001110100011001010100000011000100010111111000011001000000010011100100011010000101100010101110011100 /
b0000000000010000 9
b0000000000001111 :
b101 ;
0?
1@
b1111111111101010 A
1C
b0010101110011100 F
0I
1J
0K
1L
1V
b0001010111001110 ^
b11111000010110100001110001001111010101010000110001011001101000010011100001001100100101110011011000010010000100100011110011000001001000101101000110011101101000011101000110010101000000110001000101111110000110010000000100111001000110100001011000101011100111000 `
b011101010 s
b010 (!
b0000000000000000 )!
b0000000000000000 *!
1+!
19!
b0001010111001110 <!
#41
0+!
09!
0;!
#42
b00000000000000000000000000010001 %
b11111000010110100001110001001111010101010000110001011001101000010011100001001100100101110011011000010010000100100011110011000001001000101101000110011101101000011101000110010101000000110001000101111110000110010000000100111001000110100001011000101011100111000 &
b11111000011001000000010011100100011010000101100010101110011100011111000010110100001110001001111010101010000110001011001101000010011100001001100100101110011011000010010000100100011110011000001001000101101000110011101101000011101000110010101000000110001000101111110000110010000000100111001000110100001011000101011100111000 /
b0000000000010001 9
b0000000000010000 :
b010 ;
0@
0C
1D
b0101011100111000 F
0J
0L
1W
b0010101110011100 ^
b11110000101101000011100010011110101010100001100010110011010000100111000010011001001011100110110000100100001001000111100110000010010001011010001100111011010000111010001100101010000001100010001011111100001100100000001001110010001101000010110001010111010110101 `
1+!
b0010101110011100 <!
#43
0+!
#44
b00000000000000000000000000010010 %
b11110000101101000011100010011110101010100001100010110011010000100111000010011001001011100110110000100100001001000111100110000010010001011010001100111011010000111010001100101010000001100010001011111100001100100000001001110010001101000010110001010111010110101 &
b11110000110010000000100111001000110100001011000101011101011010111110000101101000011100010011110101010100001100010110011010000100111000010011001001011100110110000100100001001000111100110000010010001011010001100111011010000111010001100101010000001100010001011111100001100100000001001110010001101000010110001010111010110101 /
b0000000000010010 9
b0000000000010001 :
0D
1E
b1010111010110101 F
0V
1X
b0101011100111000 ^
b11100001011010000111000100111101010101000011000101100110100001001110000100110010010111001101100001001000010010001111001100000100100010110100011001110110100001110100011001010100000011000100010111111000011001000000010011100100011010000101100010101110110101111 `
1+!
b0101011100111000 <!
#45
0+!
#46
b00000000000000000000000000010011 %
b11100001011010000111000100111101010101000011000101100110100001001110000100110010010111001101100001001000010010001111001100000100100010110100011001110110100001110100011001010100000011000100010111111000011001000000010011100100011010000101100010101110110101111 &
b11100001100100000001001110010001101000010110001010111011010111111100001011010000111000100111101010101000011000101100110100001001110000100110010010111001101100001001000010010001111001100000100100010110100011001110110100001110100011001010100000011000100010111111000011001000000010011100100011010000101100010101110110101111 /
b0000000000010011 9
b0000000000010010 :
0E
b0101110110101111 F
0W
1\
b1010111010110101 ^
1_
b11000010110100001110001001111010101010000110001011001101000010011100001001100100101110011011000010010000100100011110011000001001000101101000110011101101000011101000110010101000000110001000101111110000110010000000100111001000110100001011000101011101110011011 `
1+!
b1010111010110101 <!
#47
0+!
#48
b00000000000000000000000000010100 %
b11000010110100001110001001111010101010000110001011001101000010011100001001100100101110011011000010010000100100011110011000001001000101101000110011101101000011101000110010101000000110001000101111110000110010000000100111001000110100001011000101011101110011011 &
b11000011001000000010011100100011010000101100010101110111001101111000010110100001110001001111010101010000110001011001101000010011100001001100100101110011011000010010000100100011110011000001001000101101000110011101101000011101000110010101000000110001000101111110000110010000000100111001000110100001011000101011101110011011 /
b0000000000010100 9
b0000000000010011 :
b1011101110011011 F
0X
0\
1]
b0101110110101111 ^
0_
b10000101101000011100010011110101010100001100010110011010000100111000010011001001011100110110000100100001001000111100110000010010001011010001100111011010000111010001100101010000001100010001011111100001100100000001001110010001101000010110001010111011111110011 `
b1010111010110101 j
1+!
b0000000000000000 0!
16!
b0101110110101111 <!
#49
0+!
#50
b00000000000000000000000000010101 %
b10000101101000011100010011110101010100001100010110011010000100111000010011001001011100110110000100100001001000111100110000010010001011010001100111011010000111010001100101010000001100010001011111100001100100000001001110010001101000010110001010111011111110011 &
b10000110010000000100111001000110100001011000101011101111111001110000101101000011100010011110101010100001100010110011010000100111000010011001001011100110110000100100001001000111100110000010010001011010001100111011010000111010001100101010000001100010001011111100001100100000001001110010001101000010110001010111011111110011 /
b0000000000010101 9
b0000000000010100 :
1<
b0000000000000000 A
1C
b0111011111110011 F
1S
0]
b1011101110011011 ^
b00001011010000111000100111101010101000011000101100110100001001110000100110010010111001101100001001000010010001111001100000100100010110100011001110110100001110100011001010100000011000100010111111000011001000000010011100100011010000101100010101110111100100011 `
1+!
06!
b1011101110011011 <!
#51
0+!
#52
b00000000000000000000000000010110 %
b00001011010000111000100111101010101000011000101100110100001001110000100110010010111001101100001001000010010001111001100000100100010110100011001110110100001110100011001010100000011000100010111111000011001000000010011100100011010000101100010101110111100100011 &
b00001100100000001001110010001101000010110001010111011110010001100001011010000111000100111101010101000011000101100110100001001110000100110010010111001101100001001000010010001111001100000100100010110100011001110110100001110100011001010100000011000100010111111000011001000000010011100100011010000101100010101110111100100011 /
b0000000000010110 9
b0000000000010101 :
0<
0C
1D
b1110111100100011 F
1T
b0111011111110011 ^
b00010110100001110001001111010101010000110001011001101000010011100001001100100101110011011000010010000100100011110011000001001000101101000110011101101000011101000110010101000000110001000101111110000110010000000100111001000110100001011000101011101111001000110 `
1+!
b0111011111110011 <!
#53
0+!
#54
b00000000000000000000000000010111 %
b00010110100001110001001111010101010000110001011001101000010011100001001100100101110011011000010010000100100011110011000001001000101101000110011101101000011101000110010101000000110001000101111110000110010000000100111001000110100001011000101011101111001000110 &
b00011001000000010011100100011010000101100010101110111100100011000010110100001110001001111010101010000110001011001101000010011100001001100100101110011011000010010000100100011110011000001001000101101000110011101101000011101000110010101000000110001000101111110000110010000000100111001000110100001011000101011101111001000110 /
b0000000000010111 9
b0000000000010110 :
0D
1E
b1101111001000110 F
0S
1U
b1110111100100011 ^
b00101101000011100010011110101010100001100010110011010000100111000010011001001011100110110000100100001001000111100110000010010001011010001100111011010000111010001100101010000001100010001011111100001100100000001001110010001101000010110001010111011110010001100 `
1+!
b1110111100100011 <!
#55
0+!
